[
  {
    "model": "Salud.factorriesgo",
    "pk": 1,
    "fields": {
      "detalle": "Desmayos"
    }
  },
  {
    "model": "Salud.factorriesgo",
    "pk": 2,
    "fields": {
      "detalle": "Solpo"
    }
  },
  {
    "model": "Salud.factorriesgo",
    "pk": 3,
    "fields": {
      "detalle": "P\u00e9rdida del conocimiento traum\u00e1tica"
    }
  },
  {
    "model": "Salud.factorriesgo",
    "pk": 4,
    "fields": {
      "detalle": "P\u00e9rdida del conocimiento no traum\u00e1tica"
    }
  },
  {
    "model": "Salud.factorriesgo",
    "pk": 5,
    "fields": {
      "detalle": "Taquicardia"
    }
  },
  {
    "model": "Salud.factorriesgo",
    "pk": 6,
    "fields": {
      "detalle": "Diabetes"
    }
  },
  {
    "model": "Salud.factorriesgo",
    "pk": 7,
    "fields": {
      "detalle": "Epilepsia"
    }
  },
  {
    "model": "Salud.factorriesgo",
    "pk": 8,
    "fields": {
      "detalle": "Meningitis"
    }
  },
  {
    "model": "Salud.factorriesgo",
    "pk": 9,
    "fields": {
      "detalle": "Convulsiones"
    }
  },
  {
    "model": "Salud.factorriesgo",
    "pk": 11,
    "fields": {
      "detalle": "Asma"
    }
  },
  {
    "model": "Salud.factorriesgo",
    "pk": 12,
    "fields": {
      "detalle": "Falso grup"
    }
  },
  {
    "model": "Salud.factorriesgo",
    "pk": 13,
    "fields": {
      "detalle": "Alergias"
    }
  }
]